{
  "config":
  {
    "enable_zone_boundaries":true,
    "enable_collision_avoidance":true,
    "background_color": "white",
    "paper_width": 1000,
    "fixed_width": false,
    "preferred_ratio": 0.5
  },
  "links":[
  ],
  "zones": [
    { "type" : "carousel", "rectangle": [10, 10, "200", "viewHeight-20"]},
    { "type" : "default", "rectangle": [210, 10, "viewWidth-210", "viewHeight-20"]}
  ],
  "nodes":[
    { "type": "panel", "name":"p1", "label":"Hello Milestone", "boundary": "B", "children":[
      { "type": "comment", "label":"Some project duration", "boundary": "B"}
    ]},
    { "type": "panel", "name":"p2", "label":"Goodby Milestone", "boundary": "B", "children":[
      { "type": "comment", "label":"See ya", "boundary": "B"}
    ]},
    { "type": "icon", "class":"carousel_down", "name": "down", "icon":"chevron-circle-left", "boundary": "A", "y": 180, "x":60},
    { "type": "icon", "class":"carousel_up", "name": "up", "icon":"chevron-circle-right", "boundary": "A", "y": 180, "x": 160}
  ]
}
