{
  "streams": [
    "cd",
    "monitoring",
    "staging",
    "live",
    "playground"
  ],
  "header": ["id","parallel","position","parent","state"],
  "records": [
    [1,0,0,0,"complete"],
    [2,1,1,0,"busy"],
    [3,2,4,0,"pending"],
    [3,3,5,0,"pending"],
    [3,4,6,0,"pending"],
    [3,4,8,0,"pending"],
    [4,0,70,0,"pending"]
  ]
}