id,parallel,position,parent,state
id_0,0,0,0,complete
id_1,0,1,0,complete
id_2,0,2,0,complete
id_3,0,3,0,busy
id_4,0,4,0,pending
id_5,0,5,0,pending
id_6,0,6,0,pending
id_7,0,7,0,pending
id_8,0,8,0,pending
id_9,0,9,0,pending
id_10,0,10,0,pending
id_11,0,11,0,pending
id_12,0,12,0,pending
id_13,0,13,0,pending
id_14,0,14,0,pending
id_15,0,15,0,pending
id_16,0,16,0,pending
id_17,0,17,0,pending
id_18,0,18,0,pending
id_19,0,19,0,pending
id_20,0,20,0,pending
id_21,0,21,0,pending
id_22,0,22,0,pending
id_23,0,23,0,pending
id_24,0,24,0,pending
id_25,0,25,0,pending
id_26,0,26,0,pending
id_27,0,27,0,pending
id_28,0,28,0,pending
id_29,0,29,0,pending
id_30,0,30,0,pending
id_31,0,31,0,pending
id_32,0,32,0,pending
id_33,0,33,0,pending
id_34,0,34,0,pending
id_35,0,35,0,pending
id_36,0,36,0,pending
id_37,0,37,0,pending
id_38,0,38,0,pending
id_39,0,39,0,pending
id_40,0,40,0,pending
id_41,0,41,0,pending
id_42,0,42,0,pending
id_43,0,43,0,pending
id_44,0,44,0,pending
id_45,0,45,0,pending
id_46,0,46,0,pending
id_47,0,47,0,pending
id_48,0,48,0,pending
id_49,0,49,0,pending
id_50,0,50,0,pending
id_51,0,51,0,pending
id_52,0,52,0,pending
id_53,0,53,0,pending
id_54,0,54,0,pending
id_55,0,55,0,pending
id_56,0,56,0,pending
id_57,0,57,0,pending
id_58,0,58,0,pending
id_59,0,59,0,pending
id_60,0,60,0,pending
id_61,0,61,0,pending
id_62,0,62,0,pending
id_63,0,63,0,pending
id_64,0,64,0,pending
id_65,0,65,0,pending
id_66,0,66,0,pending
id_67,0,67,0,pending
id_68,0,68,0,pending
id_69,0,69,0,pending
id_70,0,70,0,pending
id_71,0,71,0,pending
id_72,0,72,0,pending
id_73,0,73,0,pending
id_74,0,74,0,pending
id_75,0,75,0,pending
id_76,0,76,0,pending
id_77,0,77,0,pending
id_78,0,78,0,pending
id_79,0,79,0,pending
id_80,0,80,0,pending
id_81,0,81,0,pending
id_82,0,82,0,pending
id_83,0,83,0,pending
id_84,0,84,0,pending
id_85,0,85,0,pending
id_86,0,86,0,pending
id_87,0,87,0,pending
id_88,0,88,0,pending
id_89,0,89,0,pending
id_90,0,90,0,pending
id_91,0,91,0,pending
id_92,0,92,0,pending
id_93,0,93,0,pending
id_94,0,94,0,pending
id_95,0,95,0,pending
id_96,0,96,0,pending
id_97,0,97,0,pending
id_98,0,98,0,pending
id_99,0,99,0,pending
id_100,0,100,0,pending
id_101,0,101,0,pending
id_102,0,102,0,pending
id_103,0,103,0,pending
id_104,0,104,0,pending
id_105,0,105,0,pending
id_106,0,106,0,pending
id_107,0,107,0,pending
id_108,0,108,0,pending
id_109,0,109,0,pending

