{
  "config":
  {
    "enable_zone_boundaries":true,
    "enable_collision_avoidance":true,
    "background_color": "white",
    "paper_width": 1000,
    "fixed_width": false,
    "preferred_ratio": 0.5,
    "force_collide": 30
  },
  "links":[
  ],
  "zones": [
    { "type" : "default", "rectangle": [10, 10, "200", "viewHeight-20"]},
    { "type" : "default", "rectangle": [220, 10, "viewWidth-230", "viewHeight-20"]}
  ],
  "nodes":[
    { "type": "list", "label":"Hello World XL", "class":"label-xl", "boundary": "A", "values": [
      {"id":"a", "label":"Option A", "count":400, "selected":false},
      {"id":"b", "label":"Option B", "selected":false},
      {"id":"c", "label":"Option C", "selected":true},
      {"id":"d", "label":"Option D", "selected":true},
      {"id":"e", "label":"Option E", "selected":true},
      {"id":"f", "label":"Option F", "selected":true}
    ]},
    { "type": "dimension", "label":"Region", "class":"label-xl", "boundary": "A", "dimension":"abc"},
    { "type": "list", "label":"Region", "class":"label-xl", "boundary": "A", "values": [
      {"id":"a", "label":"Option A", "count":400, "selected":false},
      {"id":"b", "label":"Option F", "selected":true}
    ]},
    { "type": "list", "label":"Country", "class":"label-xl", "boundary": "A", "values": [
      {"id":"a", "label":"Option A", "selected":false}
    ]}
  ]
}
