{
  "config":
  {
    "enable_zone_boundaries":true,
    "enable_collision_avoidance":true,
    "background_color": "white",
    "paper_width": 1000,
    "fixed_width": false,
    "preferred_ratio": 0.5,
    "force_collide": 10
  },
  "links":[
  ],
  "zones": [
    { "type" : "default", "rectangle": [10, 10, "viewWidth-20", "200"]}
  ],
  "nodes":[
    { "type": "milestone", "label":"Hello Milestone", "boundary": "A"},
    { "type": "milestone", "label":"Hello Milestone (green)", "color": "green", "boundary": "A"}
  ]
}
